[
    {
        "id": "1",
        "name": "Teresa",
        "lastName" : "Abascal Morte",
        "gender": "Mujer",
        "birthday": "01/02/1990",
        "phone": "123456789",
        "email": "dasdsad@asdsqd.com",
        "note": "algo",
        "date": "21/10/2021"
    },
    {
        "id": "2",
        "name": "Miguel",
        "lastName" : "Abellán López",
        "gender": "Hombre",
        "birthday": "01/02/1990",
        "phone": "123456789",
        "email": "dasdsad@asdsqd.com",
        "note": "algo",
        "date": "21/10/2021"
    },
    {
        "id": "3",
        "name": "Rosario",
        "lastName" : "Aguilar",
        "gender": "Mujer",
        "birthday": "01/02/1990",
        "phone": "123456789",
        "email": "dasdsad@asdsqd.com",
        "note": "algo",
        "date": "21/10/2021"
    }

]